epoch,accuracy,cohen_kappa,loss,val_accuracy,val_cohen_kappa,val_loss
0,0.5949291,0.0028339028,0.7105693605629932,0.5188802,0.0,0.9052652021249136
1,0.6005452,0.054605663,0.6569268683440813,0.5188802,0.0,0.686511846880118
2,0.61968374,0.13265783,0.6435899352949345,0.5201823,0.0028591752,0.8439084266622862
3,0.6472737,0.1926446,0.6236093834676295,0.6201172,0.22714365,0.6438824186722437
0,0.59334785,0.0009986162,0.7306389356127482,0.5201823,0.0,0.7362645442287127
1,0.5965921,0.015014708,0.6573595331175377,0.56119794,0.10623658,0.6815724695722262
2,0.606325,0.08811265,0.6497571022585928,0.49153647,0.01890999,0.6929807762304941
3,0.6240458,0.16288954,0.6416129001484312,0.61035156,0.2216236,0.6666762332121531
4,0.6476281,0.21933293,0.6330063682086076,0.61328125,0.22530031,0.6623478531837463
5,0.66641223,0.2584089,0.6137284195670125,0.6464844,0.29103112,0.641434038678805
6,0.6858506,0.30193245,0.5929616755981612,0.5989583,0.20056367,0.6971999630331993
7,0.696265,0.3256125,0.583272631906761,0.6735026,0.34499133,0.6163205107053121
8,0.7048255,0.34481806,0.5718417817919699,0.6546224,0.2905451,0.6477748701969782
9,0.712241,0.3622601,0.5627496656960723,0.6188151,0.2134251,0.7461865246295929
10,0.72071975,0.38350308,0.5530282955133278,0.54264325,0.098949075,0.8202671110630035
11,0.7238277,0.39186782,0.5472849465248499,0.5891927,0.15038735,0.7860155974825224
12,0.7327699,0.4131766,0.5406499301594242,0.6669922,0.31863934,0.6459745342532793
13,0.73162484,0.41183954,0.5380472020208511,0.694987,0.37598604,0.6112030173341433
14,0.7385496,0.4279498,0.5365770299926059,0.6451823,0.29017806,0.6481894056002299
15,0.7415758,0.43570495,0.5291304009561321,0.67252606,0.34676868,0.5775335828463236
16,0.74422026,0.441808,0.5251671755716871,0.67122394,0.34081954,0.5964977766076723
17,0.74468374,0.44260418,0.521963394351198,0.63378906,0.24653023,0.7273097410798073
18,0.75016356,0.4566002,0.5173312827701007,0.6227214,0.22346479,0.7614872977137566
19,0.75392586,0.46521026,0.5129746523197241,0.67903644,0.3446043,0.6009167209267616
20,0.75283533,0.4627759,0.5116726160309437,0.6461589,0.2927823,0.6066456362605095
21,0.75482553,0.46784043,0.5086045409756892,0.6878255,0.37246823,0.5889579355716705
22,0.76076883,0.47958738,0.5035659389576449,0.58723956,0.14541912,0.8507470140854517
23,0.7638768,0.4885944,0.5005265963506542,0.7050781,0.41083753,0.5624351650476456
24,0.7641221,0.48903906,0.4992751392049384,0.6972656,0.38767642,0.5642728321254253
25,0.76720285,0.4961003,0.49469884704217526,0.7242839,0.44519985,0.5410068929195404
26,0.76578516,0.49314576,0.4940011088694715,0.7239583,0.4382624,0.5500081305702528
27,0.76739365,0.49715054,0.49146677828927077,0.6852214,0.3676343,0.5809201523661613
28,0.77129227,0.50584745,0.4879424848109321,0.5804036,0.13081658,1.1841393560171127
29,0.7736096,0.51056707,0.4839025820744597,0.7317708,0.45567423,0.5518363192677498
30,0.77759,0.52033895,0.4818219784301916,0.6985677,0.39263445,0.5757239436109861
31,0.77649945,0.5180017,0.4799688564847054,0.7558594,0.50668883,0.5273665251831213
32,0.7786532,0.52310085,0.47812883404115036,0.6461589,0.29995227,0.6000830307602882
33,0.7801527,0.5262802,0.4765465994437622,0.67089844,0.32448888,0.711264024178187
34,0.78257906,0.53185105,0.4735851941152903,0.6500651,0.28813905,0.6653505315383276
35,0.7831243,0.53331834,0.4719390601992217,0.69173175,0.38283098,0.5928533002734184
36,0.78478736,0.5371995,0.4698611025266845,0.7405599,0.47461694,0.5261041708290577
37,0.7865867,0.54119265,0.4682064598558253,0.70703125,0.4146163,0.5547237892945608
38,0.785169,0.53802234,0.4662111573936895,0.73307294,0.4630131,0.5252178981900215
39,0.7868866,0.5425382,0.4641156993099491,0.6666667,0.3327372,0.6088659763336182
40,0.7913304,0.55098915,0.46045484821045024,0.68391925,0.37069952,0.5991560369729996
41,0.7902944,0.5496994,0.4595703758226226,0.69889325,0.38401085,0.7043882335225741
0,0.5927208,0.0030630827,0.7323685898645623,0.5201823,0.0,0.6862934231758118
1,0.5971374,0.034511387,0.6582786606338318,0.5179036,-0.0013760328,0.7480663160483042
2,0.602072,0.10315335,0.6511070788621642,0.5797526,0.15744615,0.6761063039302826
3,0.6137132,0.14758027,0.6466099276667463,0.57747394,0.16269308,0.6669094661871592
4,0.6466739,0.20547777,0.6280539798502573,0.47851562,-0.0034155846,2.000216782093048
5,0.67407304,0.26661628,0.6031916636157062,0.6276042,0.23527282,0.636377677321434
6,0.6883588,0.30032444,0.5892800836292712,0.5292969,0.08269948,0.9146883115172386
7,0.6968648,0.3224753,0.577833205468002,0.5657552,0.13987356,0.7218443602323532
8,0.7065431,0.3450902,0.5676978398695377,0.5423177,0.10757154,0.9048628931244215
9,0.7123228,0.36104488,0.5621878587172622,0.64908856,0.29554838,0.6123318523168564
10,0.72047436,0.3830353,0.5522199711336825,0.67545575,0.33940184,0.5986594905455908
11,0.7273719,0.39992326,0.5456007703960006,0.6422526,0.264421,0.6997794186075529
12,0.7300709,0.40672123,0.5402095534549285,0.68847656,0.3640002,0.5979189413289229
13,0.73535985,0.41994792,0.5346701210821728,0.7014974,0.3967648,0.582010418176651
14,0.739313,0.4292233,0.529551167849496,0.68326825,0.36615336,0.5692150282363097
15,0.7433479,0.43943548,0.5257637288084207,0.60807294,0.22627151,0.6647480602065722
16,0.74659216,0.44708604,0.52076735831919,0.69108075,0.36799443,0.5955574586987495
17,0.7476827,0.45089608,0.5173746142158592,0.6816406,0.34792757,0.6460886796315511
18,0.75179935,0.46023023,0.5134830204585127,0.58691406,0.17949891,0.6894172628720602
19,0.7544438,0.46617544,0.5098438307529187,0.71516925,0.4202063,0.5505047415693601
20,0.7578244,0.47380626,0.5070829719272538,0.7089844,0.41418165,0.5537291653454304
21,0.7593239,0.47762924,0.5045839416681746,0.67285156,0.35070252,0.5854320103923479
22,0.7609869,0.4813215,0.5003571597154424,0.7086589,0.4053316,0.5995049402117729
23,0.7651854,0.49044102,0.4970194577390781,0.6699219,0.32425225,0.7200888047615687
24,0.76673937,0.49439007,0.49394856578911145,0.7444661,0.48335218,0.5203260717292627
25,0.76870227,0.4988389,0.49204187738986416,0.6770833,0.35935205,0.5904353012641271
26,0.769711,0.5012305,0.49055858960978466,0.62109375,0.24944592,0.6700175205866495
27,0.77300984,0.50882053,0.4863427325644436,0.73046875,0.45613533,0.5379839154581229
28,0.77314615,0.5089844,0.4849027652646879,0.6429036,0.29233474,0.6248051226139069
29,0.77472734,0.51214445,0.48275529010995266,0.6780599,0.33961594,0.7666321521004041
30,0.7761178,0.5169339,0.4815642161678722,0.7093099,0.42067498,0.5650709544618925
31,0.77862597,0.5220654,0.47611505350213795,0.6927083,0.37090147,0.637866772711277
32,0.7813522,0.5288732,0.47234058263777645,0.6777344,0.3605436,0.5931946684916815
33,0.7822519,0.5306792,0.47266066446819116,0.7496745,0.49266958,0.5235350281000137
34,0.78407854,0.5361558,0.4698904205109587,0.69401044,0.3731625,0.6176719975968202
0,0.5984188,0.030142665,0.731303095973565,0.52278644,0.005699694,0.7184670343995094
1,0.6177481,0.12092888,0.6490848008912938,0.56347656,0.09649044,0.7846108973026276
2,0.64836425,0.19770789,0.6284474474133166,0.63151044,0.24892831,0.6359822476903597
3,0.672301,0.2592908,0.6061729159193965,0.60579425,0.18651253,0.8081032882134119
4,0.6862868,0.29216796,0.5926648074044006,0.6451823,0.27018857,0.7107216392954191
5,0.6966467,0.3195727,0.5799922829235913,0.6380208,0.25481397,0.7015476748347282
6,0.7028081,0.33623064,0.5727137243344713,0.65527344,0.29256976,0.6200876782337824
7,0.71087784,0.3555956,0.563867552615824,0.67122394,0.33230615,0.6021097376942635
8,0.7167121,0.37202305,0.5586706297088215,0.58496094,0.18185437,0.7203962529699007
9,0.7220011,0.38510293,0.5515936184345441,0.6774089,0.34165192,0.593604601919651
10,0.7269629,0.39748335,0.546064125256554,0.64746094,0.285439,0.6229029297828674
11,0.7307797,0.4073531,0.5406225644125153,0.6608073,0.3230732,0.6060611233115196
12,0.7357961,0.41948026,0.5364695553171206,0.6738281,0.3498091,0.5848308677474657
13,0.7395311,0.42931426,0.5308180069065406,0.6354167,0.26729047,0.6154541100064913
14,0.7444384,0.4409576,0.5267383331820905,0.60221356,0.17785263,0.9545706634720167
15,0.7441658,0.44096214,0.5213884643275969,0.6608073,0.3029675,0.6859936366478602
16,0.7492912,0.4525754,0.517784361074899,0.6702474,0.32256782,0.6773733720183372
17,0.75332606,0.4626106,0.5126642846814159,0.5592448,0.119137645,0.7889877160390218
