epoch,accuracy,cohen_kappa,loss,val_accuracy,val_cohen_kappa,val_loss
0,0.5906815,0.015377939,6.901341478237524,0.53061223,0.02856648,0.6963734055051998
1,0.5917429,0.032066286,0.6681994364823803,0.5197704,0.0006893873,0.7026276856052632
2,0.5939473,0.042980134,0.6670688129369402,0.518176,-0.002292037,0.689343051034577
3,0.59691375,0.053445518,0.6671304638391483,0.5280612,0.019157112,0.6857090981639161
4,0.593403,0.039836586,0.6661522544185606,0.5382653,0.059805274,0.6938672467153899
5,0.590627,0.018168807,27.233293911080825,0.51945156,0.000103235245,0.7842287664510765
6,0.59563464,0.0012102723,0.6798470911833292,0.5191327,-0.0006377697,0.7004344171407272
7,0.5959068,-3.1232834e-05,0.6752767211441482,0.51945156,0.0,0.7035266014994407
8,0.59598845,2.5987625e-05,0.6751352828129844,0.51945156,0.0,0.698514064963983
9,0.59593403,-5.4478645e-05,0.6753153501189199,0.51945156,0.0,0.7154140667039521
10,0.5958796,-8.2969666e-05,0.6753998679479378,0.51945156,0.0,0.7143244049987014
11,0.5954714,0.00046747923,0.6770818760756857,0.51945156,0.0,0.7193685891676922
12,0.595172,-0.00069129467,0.6784624055193422,0.51945156,0.0,0.724553569239013
13,0.59598845,-0.00010871887,0.6749770806657445,0.51945156,0.0,0.7029997402307938
14,0.5959068,-0.00016331673,0.6752543207505366,0.51945156,0.0,0.6990361627267332
0,0.59413785,-0.00043582916,5.645252106315867,0.51945156,0.0,0.7037109136581421
1,0.5958796,0.0,0.6756952590940306,0.51945156,0.0,0.7081570382020912
2,0.59574354,1.1920929e-07,0.6757180994952813,0.51945156,0.0,0.6981759022693245
3,0.59193337,0.00036931038,60.692403585737424,0.51945156,0.0,0.7018613389560154
4,0.5960701,-5.4478645e-05,0.6742878556121753,0.51945156,0.0,0.7337827925779381
5,0.5956619,1.4364719e-05,0.6751015173592081,0.5191327,-0.0006377697,0.8024678364091989
6,0.5960701,0.0,0.6745687252344089,0.51945156,0.0,0.6945291027730826
7,0.59609735,-5.4478645e-05,0.6743079501249005,0.51945156,0.0,0.7141116431781224
8,0.5959613,-5.4478645e-05,0.6736411839275871,0.51945156,0.0,0.6971100167352327
9,0.5958252,-0.00011694431,0.6736614307416645,0.51945156,0.0,0.7060935813553479
10,0.59506315,-0.000284791,0.6804981443738201,0.51945156,0.0,0.6934579160748696
0,0.59511757,-0.0004005432,8.03110011406981,0.51945156,0.0,0.6985768882595763
1,0.5957163,-5.4359436e-05,0.6759503283013764,0.51945156,0.0,0.7072769293979723
2,0.5936207,-0.0020532608,23.766120791461198,0.51945156,0.0,0.709302752601857
3,0.5958524,-8.2969666e-05,0.6774607520074385,0.51945156,0.0,0.707972095937145
4,0.5956891,5.9604645e-08,0.6757871080737422,0.51945156,0.0,0.6989745546360405
5,0.5958252,0.0,0.6761987515324319,0.51945156,0.0,0.707054040869888
6,0.5960157,0.0,0.6786098040035289,0.51945156,0.0,0.7074351335058406
7,0.5960157,0.0,0.6757204010417563,0.51945156,0.0,0.7025617592188776
8,0.5960157,0.0,0.6755625812051708,0.51945156,0.0,0.7011164767401559
9,0.5958796,0.0,0.6756804418569033,0.51945156,0.0,0.7121913323597032
10,0.5960157,0.0,0.6756568229616324,0.51945156,0.0,0.7035069964369949
