epoch,accuracy,cohen_kappa,loss,val_accuracy,val_cohen_kappa,val_loss
0,0.5948988,-0.0013061762,0.8152289172216735,0.5217803,0.0,0.7000702529242544
1,0.595769,0.00047385693,0.6885695161185681,0.5217803,0.0,0.7094730770949161
2,0.5959321,0.0,0.6749249052451646,0.5217803,0.0,0.7033224918625571
3,0.5959865,0.0,0.6747709979745443,0.5217803,0.0,0.7020196378833116
4,0.5959593,5.9604645e-08,0.6748888956377603,0.5217803,0.0,0.7019893852147189
5,0.59612244,5.9604645e-08,0.6747691177766895,0.5217803,0.0,0.6999584803677569
6,0.59579617,-2.861023e-05,0.6750233858622804,0.5217803,0.0,0.6999099928923328
7,0.59391993,0.0016688704,0.7715730086108356,0.5217803,0.0,0.7006316473989775
8,0.5953611,0.014162958,0.6712808908004462,0.5217803,0.0,0.7018712036537401
9,0.5947901,0.036834717,0.667912732201191,0.5675505,0.10804546,0.6893889295934427
10,0.5994942,0.052202582,0.6667193279127362,0.522096,0.00074625015,0.7103575419897985
11,0.6009082,0.061672807,0.6663137322305103,0.57796717,0.13402486,0.6852374076843262
12,0.6016152,0.06617504,0.6650648514083969,0.5558712,0.07838893,0.6985173249485517
13,0.5972917,0.050003886,0.6677489343715383,0.5451389,0.062219024,0.6909730789637325
14,0.60264844,0.073413014,0.66418123714608,0.54924244,0.073856056,0.6881675539594708
15,0.6055036,0.08350748,0.6627379704330806,0.55366164,0.08350551,0.6857510305414296
16,0.6064825,0.090887606,0.660577810015501,0.5217803,0.0007469654,0.7111303445064661
17,0.6037905,0.085737586,0.6606933180342452,0.5684975,0.11108267,0.687227154018903
18,0.6067816,0.09493667,0.6594139661689362,0.59185606,0.16398609,0.6773722876201976
19,0.60903853,0.10480863,0.6569541752636627,0.5801768,0.14028096,0.6763246962518403
20,0.61404175,0.12326282,0.6542365861400615,0.5864899,0.17186385,0.6838622719350488
21,0.62187296,0.15061736,0.6478963593101668,0.59090906,0.16003549,0.6716418723867397
22,0.6275016,0.16942626,0.6418349180295204,0.6199495,0.22940922,0.6541345444592562
23,0.6396291,0.19888908,0.6330982044724918,0.5246212,0.00619781,0.8019401286587571
24,0.64930934,0.21895868,0.6236057757864524,0.5754419,0.11743873,0.6960529715123803
25,0.6631771,0.25222564,0.6112705150686816,0.65340906,0.29267687,0.6238132173364813
26,0.67467916,0.27768987,0.6019718190600412,0.5975379,0.16566068,0.6759679464980809
27,0.6848216,0.30064273,0.5930157124101532,0.6631944,0.3144359,0.6078309347533216
28,0.6889276,0.3098336,0.5869007106446588,0.6698232,0.32450676,0.6020493453199213
29,0.695372,0.32480365,0.5812849128910166,0.6657197,0.31555313,0.5980976287162665
30,0.70173484,0.33923846,0.5737540294275041,0.69160354,0.3717348,0.5853304101361169
31,0.705025,0.3464992,0.5697358697101762,0.62468433,0.22344291,0.6710711323251628
32,0.70779854,0.35308027,0.5651895415012749,0.6919192,0.3715152,0.5909622687884052
33,0.7126387,0.3651917,0.5617005213177773,0.6714015,0.33909523,0.5956332256095578
34,0.7167718,0.3747862,0.5567672213238427,0.6511995,0.28214437,0.6369953182610598
35,0.7179682,0.37899995,0.5538508486288746,0.68497473,0.3601842,0.5741713302906113
36,0.7235425,0.39109188,0.5494074104582716,0.68813133,0.36088365,0.580491876361346
37,0.7265336,0.399737,0.5450923922906266,0.68939394,0.36408043,0.6194469889607093
38,0.72639763,0.3989206,0.5408898837311724,0.697601,0.38206613,0.5866108843774507
39,0.7327605,0.4142512,0.5373133311770598,0.7051768,0.3988979,0.5811718786605681
40,0.733114,0.41528255,0.5359592231001469,0.7061237,0.40670007,0.5605929545079819
41,0.7372743,0.42518312,0.5339653491520068,0.72411615,0.44124073,0.5436015692022111
42,0.738226,0.427141,0.5304842763863,0.72948235,0.44991845,0.5595612179751348
43,0.73942244,0.43043995,0.5281712657372692,0.7143308,0.42046976,0.5560275382465787
44,0.7435556,0.43961066,0.5245515780783955,0.71622473,0.4261369,0.5452536127784036
45,0.74295735,0.43837065,0.5233319151238148,0.7269571,0.4473486,0.5459771574747683
46,0.7467098,0.44715697,0.5198870009771243,0.71464646,0.417094,0.5647184394224726
47,0.7468458,0.44718874,0.519672484469979,0.70991164,0.41525632,0.5636177938995939
48,0.75176746,0.45848846,0.5172400206930357,0.7165404,0.43294048,0.5738404847756781
49,0.750571,0.45640254,0.5158026241493765,0.7171717,0.4277814,0.5437099132875
0,0.5957418,0.00063568354,0.7704074409232597,0.5217803,0.0,0.7057561904493005
1,0.59579617,0.00072962046,0.6750576672980337,0.5217803,0.0,0.707370086751803
2,0.5938656,-0.0013065338,1.206903968683035,0.5217803,0.0,0.7080747671801635
3,0.59560585,-0.0003629923,0.6750633674573452,0.5217803,0.0,0.7041552717035467
4,0.59590495,5.9604645e-08,0.6748769403359722,0.5217803,0.0,0.7049119580875743
5,0.5957418,-0.00020253658,0.6751273769852076,0.5217803,0.0,0.7033844710600496
6,0.5956874,-1.13248825e-05,0.6749500705673561,0.5217803,0.0,0.7043457561069064
7,0.59579617,-0.00010883808,0.6748238706007869,0.5217803,0.0,0.7096961411562833
8,0.5959593,5.9604645e-08,0.6748250921783381,0.5217803,0.0,0.7029243870214983
9,0.59590495,5.9604645e-08,0.6749004340571166,0.5217803,0.0,0.7034963802857832
10,0.5957418,5.9604645e-08,0.6748471113814462,0.5217803,0.0,0.7122568560369087
0,0.5935665,-0.001527071,0.7545909228754324,0.5217803,0.0,0.7048430003301062
1,0.5959865,0.0,0.6747405557547389,0.5217803,0.0,0.7002273677575468
2,0.59587777,5.9604645e-08,0.6748263571919476,0.5217803,0.0,0.70540340621062
3,0.59582335,5.9604645e-08,0.6749431746198428,0.5217803,0.0,0.7067249068106064
4,0.5959321,0.0,0.6749164710128881,0.5217803,0.0,0.7055703985570657
5,0.59582335,5.9604645e-08,0.6749126985588099,0.5217803,0.0,0.7005237629919341
6,0.5958505,0.0,0.6749017509865403,0.5217803,0.0,0.7074812873445376
7,0.5960137,5.9604645e-08,0.6748249455719169,0.5217803,0.0,0.7040236188907816
8,0.5960409,5.9604645e-08,0.6748773435522532,0.5217803,0.0,0.7016916377375825
9,0.5960137,5.9604645e-08,0.6747529665257377,0.5217803,0.0,0.7029181664640253
10,0.5959593,5.9604645e-08,0.6748714494736319,0.5217803,0.0,0.7051729445505623
